{
  "FR": {
    "header": "Uh oh ! Un musicien diabolique vous a donné la mauvaise URL",
    "subheader": "Erreur 404 - Page non trouvée"
  },
  "EN": {
    "header": "Uh oh ! An evil musician gave you the wrong URL !",
    "subheader": "Error 404 : Page not Found"
  }
}