{
  "FR": {
    "mainMenu": {
      "product": "Produit",
      "about": "À Propos",
      "contact": "Contact",
      "buynow": "Acheter"
    },
    "secondaryMenu": {
      "jobs": "Emplois",
      "blog": "Blog"
    }
  },
  "EN": {
    "mainMenu": {
      "product": "Product",
      "about": "About Us",
      "contact": "Contact",
      "buynow": "Buy Now"
    },
    "secondaryMenu": {
      "jobs": "Jobs",
      "blog": "Blog"
    }
  }
}